<svg width="580" height="400" xmlns="http://www.w3.org/2000/svg">
 <!-- Created with Method Draw - http://github.com/duopixel/Method-Draw/ -->

 <g>
  <title>background</title>
  <rect fill="#fff" id="canvas_background" height="402" width="582" y="-1" x="-1"/>
  <g display="none" overflow="visible" y="0" x="0" height="100%" width="100%" id="canvasGrid">
   <rect fill="url(#gridpattern)" stroke-width="0" y="0" x="0" height="100%" width="100%"/>
  </g>
 </g>
 <g>
  <title>Layer 1</title>
  <path id="svg_2" d="m97.5,91.453125l398.5,198.546875l-127,-219c0.5,0.453125 -152.5,237.453125 -152.5,237.453125c0,0 -119,-217 -119,-217z" stroke-opacity="null" stroke-width="1.5" stroke="#000" fill="#FFFA8D"/>
  <ellipse ry="31" rx="40" id="svg_4" cy="197.453125" cx="213.5" stroke-opacity="null" stroke-width="1.5" stroke="#000" fill="#5B9BA2"/>
  <ellipse ry="28" rx="45" id="svg_5" cy="184.453125" cx="381.5" stroke-width="1.5" stroke="#000" fill="#5b9ba2"/>
 </g>
</svg>